%YAML 1.1
%TAG !u! tag:unity3d.com,2011:
--- !u!74 &7400000
AnimationClip:
  m_ObjectHideFlags: 0
  m_CorrespondingSourceObject: {fileID: 0}
  m_PrefabInstance: {fileID: 0}
  m_PrefabAsset: {fileID: 0}
  m_Name: EnemyIdle
  serializedVersion: 6
  m_Legacy: 0
  m_Compressed: 0
  m_UseHighQualityCurve: 1
  m_RotationCurves: []
  m_CompressedRotationCurves: []
  m_EulerCurves: []
  m_PositionCurves: []
  m_ScaleCurves: []
  m_FloatCurves: []
  m_PPtrCurves:
  - curve:
    - time: 0
      value: {fileID: 21300000, guid: d34eddfb037e410418dc78fae9fdf049, type: 3}
    - time: 0.016666668
      value: {fileID: 21300000, guid: 2785852e399c5894dadcdbec8ac33d12, type: 3}
    - time: 0.05
      value: {fileID: 21300000, guid: bed908e5f2bd48f4aabbe65ef3e26f65, type: 3}
    - time: 0.06666667
      value: {fileID: 21300000, guid: 7365c7a8b668d4946990db66aa16f3c7, type: 3}
    - time: 0.1
      value: {fileID: 21300000, guid: 932b26cf2bb8ed84a99d4835f0cbd26c, type: 3}
    - time: 0.11666667
      value: {fileID: 21300000, guid: 698358b001c4abd4fb177389bfb49e37, type: 3}
    - time: 0.15
      value: {fileID: 21300000, guid: 1fc0c585f8d429f47be1aca9d1db5676, type: 3}
    - time: 0.16666667
      value: {fileID: 21300000, guid: fd2a19417fa675c48b6a1e814e416a05, type: 3}
    - time: 0.2
      value: {fileID: 21300000, guid: 7067ced33ae5006488cd2557539bc111, type: 3}
    - time: 0.21666667
      value: {fileID: 21300000, guid: 225de688500a2cc4bbd57788829207d8, type: 3}
    - time: 0.25
      value: {fileID: 21300000, guid: 267876b72627b0345a71fdcc949bc4a5, type: 3}
    - time: 0.26666668
      value: {fileID: 21300000, guid: 2918a6bacaceb1f4f974f99676df4246, type: 3}
    - time: 0.3
      value: {fileID: 21300000, guid: 4a47a7ca8098e744299ffb83aada379d, type: 3}
    - time: 0.31666666
      value: {fileID: 21300000, guid: 311da357d283f5f4e949fa2974c25dab, type: 3}
    - time: 0.35
      value: {fileID: 21300000, guid: a0a2422cfa950c64ebbbf75a386895c4, type: 3}
    - time: 0.36666667
      value: {fileID: 21300000, guid: fe2494ac32020ca44b5d5f316b7bf5bc, type: 3}
    - time: 0.4
      value: {fileID: 21300000, guid: 5c2c3b0f06b70434c98332fc5a5725b2, type: 3}
    - time: 0.41666666
      value: {fileID: 21300000, guid: ceafc58ca7375544da68759b8f01b59a, type: 3}
    attribute: m_Sprite
    path: 
    classID: 212
    script: {fileID: 0}
  m_SampleRate: 60
  m_WrapMode: 0
  m_Bounds:
    m_Center: {x: 0, y: 0, z: 0}
    m_Extent: {x: 0, y: 0, z: 0}
  m_ClipBindingConstant:
    genericBindings:
    - serializedVersion: 2
      path: 0
      attribute: 0
      script: {fileID: 0}
      typeID: 212
      customType: 23
      isPPtrCurve: 1
    pptrCurveMapping:
    - {fileID: 21300000, guid: d34eddfb037e410418dc78fae9fdf049, type: 3}
    - {fileID: 21300000, guid: 2785852e399c5894dadcdbec8ac33d12, type: 3}
    - {fileID: 21300000, guid: bed908e5f2bd48f4aabbe65ef3e26f65, type: 3}
    - {fileID: 21300000, guid: 7365c7a8b668d4946990db66aa16f3c7, type: 3}
    - {fileID: 21300000, guid: 932b26cf2bb8ed84a99d4835f0cbd26c, type: 3}
    - {fileID: 21300000, guid: 698358b001c4abd4fb177389bfb49e37, type: 3}
    - {fileID: 21300000, guid: 1fc0c585f8d429f47be1aca9d1db5676, type: 3}
    - {fileID: 21300000, guid: fd2a19417fa675c48b6a1e814e416a05, type: 3}
    - {fileID: 21300000, guid: 7067ced33ae5006488cd2557539bc111, type: 3}
    - {fileID: 21300000, guid: 225de688500a2cc4bbd57788829207d8, type: 3}
    - {fileID: 21300000, guid: 267876b72627b0345a71fdcc949bc4a5, type: 3}
    - {fileID: 21300000, guid: 2918a6bacaceb1f4f974f99676df4246, type: 3}
    - {fileID: 21300000, guid: 4a47a7ca8098e744299ffb83aada379d, type: 3}
    - {fileID: 21300000, guid: 311da357d283f5f4e949fa2974c25dab, type: 3}
    - {fileID: 21300000, guid: a0a2422cfa950c64ebbbf75a386895c4, type: 3}
    - {fileID: 21300000, guid: fe2494ac32020ca44b5d5f316b7bf5bc, type: 3}
    - {fileID: 21300000, guid: 5c2c3b0f06b70434c98332fc5a5725b2, type: 3}
    - {fileID: 21300000, guid: ceafc58ca7375544da68759b8f01b59a, type: 3}
  m_AnimationClipSettings:
    serializedVersion: 2
    m_AdditiveReferencePoseClip: {fileID: 0}
    m_AdditiveReferencePoseTime: 0
    m_StartTime: 0
    m_StopTime: 0.43333334
    m_OrientationOffsetY: 0
    m_Level: 0
    m_CycleOffset: 0
    m_HasAdditiveReferencePose: 0
    m_LoopTime: 1
    m_LoopBlend: 0
    m_LoopBlendOrientation: 0
    m_LoopBlendPositionY: 0
    m_LoopBlendPositionXZ: 0
    m_KeepOriginalOrientation: 0
    m_KeepOriginalPositionY: 1
    m_KeepOriginalPositionXZ: 0
    m_HeightFromFeet: 0
    m_Mirror: 0
  m_EditorCurves: []
  m_EulerEditorCurves: []
  m_HasGenericRootTransform: 0
  m_HasMotionFloatCurves: 0
  m_Events: []
