%YAML 1.1
%TAG !u! tag:unity3d.com,2011:
--- !u!114 &11400000
MonoBehaviour:
  m_ObjectHideFlags: 0
  m_CorrespondingSourceObject: {fileID: 0}
  m_PrefabInstance: {fileID: 0}
  m_PrefabAsset: {fileID: 0}
  m_GameObject: {fileID: 0}
  m_Enabled: 1
  m_EditorHideFlags: 0
  m_Script: {fileID: 11500000, guid: e24c62fcfae6f9c4c990bb05a8a119a3, type: 3}
  m_Name: StoneBoxData
  m_EditorClassIdentifier: 
  Name: StoneBox
  isStatic: 1
  Helth: 1
